8 -16 -24 -32 -40 -32 -24 -16 -8 720
16 -24 -32 -40 -48 -40 -32 -24 -16 648
24 -32 -40 -48 -56 -48 -40 -32 608
16 -24 -32 -40 -48 -40 -32 -24 672
8 -16 -24 -32 -40 -32 -24 -16 736
40 -32 -24 -16 -8 -16 -24 -32 -40 688
8 -24 -32 -24 -16 -24 -32 -40 728
16 -32 -8 -24 -40 -24 -16 -32 -8 720
8 -8 -8 -8 -8 -8 -8 -8 -8 848
24 -24 -24 -24 -16 -16 -16 -16 768
24 -24 -24 -24 -16 -24 -24 -16 752
